…
## See spec(...) for full column specifications.

full_wind_csv

## # A tibble: 58,185 x 24
##    case_id faa_ors faa_asn usgs_pr_id t_state t_county t_fips p_name p_year
##      <int> <chr>   <chr>        <int> <chr>   <chr>    <chr>  <chr>   <int>
##  1 3073429 missing missing       4960 CA      Kern Co 06029  251 W   1987
##  2 3071522 missing missing       4997 CA      Kern Co 06029  251 W   1987
##  3 3073425 missing missing       4957 CA      Kern Co 06029  251 W   1987
##  4 3071569 missing missing       5023 CA      Kern Co 06029  251 W   1987
##  5 3005252 missing missing       5768 CA      Kern Co 06029  251 W   1987
##  6 3003862 missing missing       5836 CA      Kern Co 06029  251 W   1987
##  7 3073370 missing missing       4948 CA      Kern Co 06029  251 W   1987
##  8 3010101 missing missing       5828 CA      Kern Co 06029  251 W   1987
##  9 3073324 missing missing       4965 CA      Kern Co 06029  251 W   1987
## 10 3072659 missing missing       5044 CA      Kern Co 06029  251 W   1987
## # ... with 58,175 more rows, and 15 more variables: p_tnum <int>,
## #   p_cap <dbl>, t_manu <chr>, t_model <chr>, t_cap <int>, t_hh <dbl>,
## #   t_rd <dbl>, t_rsa <dbl>, t_ttlh <dbl>, t_conf_atr <int>,
## #   t_conf_loc <int>, t_img_date <chr>, t_img_srce <chr>, xlong <dbl>,
## #   ylat <dbl>
…
t_hh refers to turbine hub height in m t_rsa refers to turbine rotor swept area in square meters t_ttlh refers to the height of the wind turbine from the ground to the tip of a vertically extended blade above the tower. (t_ttlh = t_hh + 1/2 rotor diameter) t_conf_atr referes to level of confidence in the turbine's attributes from low to high 1. no confidence: no information found 2. partial confidence: incomplete information or discrepancies found across data sources 3. full confidence: consistent information across multiple data sources

wind_csv <- full_wind_csv %>% dplyr::select(case_id,
                    state = t_state,
                    site_name = p_name,
                    site_year = p_year,
                    total_turbines = p_tnum,
                    rotor_swept_area = t_rsa,
                    hub_height = t_hh,
                    rotor_dia = t_rd,
                    total_height = t_ttlh,
                    confidence = t_conf_atr)
wind_csv

## # A tibble: 58,185 x 10
##    case_id state site_name site_year total_turbines rotor_swept_area
##      <int> <chr> <chr>         <int>          <int>            <dbl>
##  1 3073429 CA    251 Wind       1987            194            -9999
##  2 3071522 CA    251 Wind       1987            194            -9999
##  3 3073425 CA    251 Wind       1987            194            -9999
##  4 3071569 CA    251 Wind       1987            194            -9999
##  5 3005252 CA    251 Wind       1987            194            -9999
##  6 3003862 CA    251 Wind       1987            194            -9999
##  7 3073370 CA    251 Wind       1987            194            -9999
##  8 3010101 CA    251 Wind       1987            194            -9999
##  9 3073324 CA    251 Wind       1987            194            -9999
## 10 3072659 CA    251 Wind       1987            194            -9999
## # ... with 58,175 more rows, and 4 more variables: hub_height <dbl>,
## #   rotor_dia <dbl>, total_height <dbl>, confidence <int>

State analysis - number of turbines per states

turbine_per_state <- wind_csv %>%
  filter(state != "GU") %>% #not real states: GU and PR
  filter(state != "PR") %>%
  count(state)

turbine_per_state %>% arrange(desc(n))

## # A tibble: 43 x 2
##    state     n
##    <chr> <int>
##  1 TX    13232
##  2 CA     9037
##  3 IA     4280
##  4 OK     3821
##  5 KS     2898
##  6 IL     2602
##  7 MN     2547
##  8 CO     2278
##  9 OR     1868
## 10 WA     1744
## # ... with 33 more rows
…
