…
    ## See spec(...) for full column specifications.

``` r
full_wind_csv
```

    ## # A tibble: 58,185 x 24
    ##    case_id faa_ors faa_asn usgs_pr_id t_state t_county t_fips p_name p_year
    ##      <int> <chr>   <chr>        <int> <chr>   <chr>    <chr>  <chr>   <int>
    ##  1 3073429 missing missing       4960 CA      Kern Co… 06029  251 W…   1987
    ##  2 3071522 missing missing       4997 CA      Kern Co… 06029  251 W…   1987
    ##  3 3073425 missing missing       4957 CA      Kern Co… 06029  251 W…   1987
    ##  4 3071569 missing missing       5023 CA      Kern Co… 06029  251 W…   1987
    ##  5 3005252 missing missing       5768 CA      Kern Co… 06029  251 W…   1987
    ##  6 3003862 missing missing       5836 CA      Kern Co… 06029  251 W…   1987
    ##  7 3073370 missing missing       4948 CA      Kern Co… 06029  251 W…   1987
    ##  8 3010101 missing missing       5828 CA      Kern Co… 06029  251 W…   1987
    ##  9 3073324 missing missing       4965 CA      Kern Co… 06029  251 W…   1987
    ## 10 3072659 missing missing       5044 CA      Kern Co… 06029  251 W…   1987
    ## # ... with 58,175 more rows, and 15 more variables: p_tnum <int>,
    ## #   p_cap <dbl>, t_manu <chr>, t_model <chr>, t_cap <int>, t_hh <dbl>,
    ## #   t_rd <dbl>, t_rsa <dbl>, t_ttlh <dbl>, t_conf_atr <int>,
    ## #   t_conf_loc <int>, t_img_date <chr>, t_img_srce <chr>, xlong <dbl>,
    ## #   ylat <dbl>
…
``` r
wind_csv <- full_wind_csv %>% dplyr::select(case_id,
                    state = t_state,
                    site_name = p_name,
                    site_year = p_year,
                    total_turbines = p_tnum,
                    rotor_swept_area = t_rsa,
                    hub_height = t_hh,
                    rotor_dia = t_rd,
                    total_height = t_ttlh,
                    confidence = t_conf_atr)
wind_csv
```

    ## # A tibble: 58,185 x 10
    ##    case_id state site_name site_year total_turbines rotor_swept_area
    ##      <int> <chr> <chr>         <int>          <int>            <dbl>
    ##  1 3073429 CA    251 Wind       1987            194            -9999
    ##  2 3071522 CA    251 Wind       1987            194            -9999
    ##  3 3073425 CA    251 Wind       1987            194            -9999
    ##  4 3071569 CA    251 Wind       1987            194            -9999
    ##  5 3005252 CA    251 Wind       1987            194            -9999
    ##  6 3003862 CA    251 Wind       1987            194            -9999
    ##  7 3073370 CA    251 Wind       1987            194            -9999
    ##  8 3010101 CA    251 Wind       1987            194            -9999
    ##  9 3073324 CA    251 Wind       1987            194            -9999
    ## 10 3072659 CA    251 Wind       1987            194            -9999
    ## # ... with 58,175 more rows, and 4 more variables: hub_height <dbl>,
    ## #   rotor_dia <dbl>, total_height <dbl>, confidence <int>

State analysis - number of turbines per states

``` r
turbine_per_state <- wind_csv %>%
  filter(rotor_swept_area != -9999.00) %>%
  filter(state != "GU") %>% #not real states: GU and PR
  filter(state != "PR") %>%
  count(state)

turbine_per_state %>% arrange(desc(n))
```

    ## # A tibble: 41 x 2
    ##    state     n
    ##    <chr> <int>
    ##  1 TX    12922
    ##  2 CA     5717
    ##  3 IA     4153
    ##  4 OK     3715
    ##  5 KS     2790
    ##  6 IL     2568
    ##  7 MN     2499
    ##  8 CO     1987
    ##  9 OR     1868
    ## 10 WA     1725
    ## # ... with 31 more rows

``` r
#attempt working with states
data("fifty_states")

#fifty_states states written lower case and spelled out
state_abbs <- tibble(state = str_to_lower(state.name), abb = state.abb)
state_abbs
```

    ## # A tibble: 50 x 2
    ##    state       abb  
    ##    <chr>       <chr>
    ##  1 alabama     AL   
    ##  2 alaska      AK   
    ##  3 arizona     AZ   
    ##  4 arkansas    AR   
    ##  5 california  CA   
    ##  6 colorado    CO   
    ##  7 connecticut CT   
    ##  8 delaware    DE   
    ##  9 florida     FL   
    ## 10 georgia     GA   
    ## # ... with 40 more rows

``` r
full_turbines<- left_join(turbine_per_state, state_abbs, by = c("state" = "abb")) %>%
  rename(id = state) %>%
  rename(full_state = state.y) %>%
  rename(num_turbines = n)
full_turbines
```

    ## # A tibble: 41 x 3
    ##    id    num_turbines full_state 
    ##    <chr>        <int> <chr>      
    ##  1 AK             121 alaska     
    ##  2 AZ             144 arizona    
    ##  3 CA            5717 california 
    ##  4 CO            1987 colorado   
    ##  5 CT               2 connecticut
    ##  6 DE               1 delaware   
    ##  7 HI             119 hawaii     
    ##  8 IA            4153 iowa       
    ##  9 ID             541 idaho      
    ## 10 IL            2568 illinois   
    ## # ... with 31 more rows
…
